…
## Number 1

Use pivot_longer to reshape the dataset into one that has two columns,
the first giving the protein identity and the second giving the amount
of the protein in one of the cells. The dataset you get should have
1750000 rows (50000 cells in the original dataset times 35 proteins).

``` r
pivoted <- dataset %>%
  pivot_longer(cols = everything(), names_to = "Protein", values_to = "Count")

pivoted
```

    ## # A tibble: 1,750,000 × 2
    ##    Protein    Count
    ##    <chr>      <dbl>
    ##  1 NKp30      0.188
    ##  2 KIR3DL1    3.62 
    ##  3 NKp44     -0.561
    ##  4 KIR2DL1   -0.294
    ##  5 GranzymeB  2.48 
    ##  6 CXCR6     -0.145
    ##  7 CD161     -0.315
    ##  8 KIR2DS4    1.94 
    ##  9 NKp46      4.08 
    ## 10 NKG2D      2.62 
    ## # ℹ 1,749,990 more rows
…
Using the pivoted dataset we get:

``` r
median_by_protein <- pivoted %>%
  group_by(Protein) %>%
  summarize(
    median_protein = median(Count, na.rm = TRUE),
    mad_protein = mad(Count, na.rm = TRUE)  
  )
median_by_protein
```

    ## # A tibble: 35 × 3
    ##    Protein median_protein mad_protein
    ##    <chr>            <dbl>       <dbl>
    ##  1 CD107a         -0.122        0.609
    ##  2 CD16            5.12         0.874
    ##  3 CD161           0.726        1.69 
    ##  4 CD2             3.95         1.68 
    ##  5 CD4            -0.204        0.395
    ##  6 CD56            5.71         0.998
    ##  7 CD57            3.07         1.99 
    ##  8 CD69            4.59         1.02 
    ##  9 CD8             2.40         2.29 
    ## 10 CXCR6          -0.0581       0.727
    ## # ℹ 25 more rows
…
